02 Data analysis
…
dat1 <- readRDS("data/dat1.rds")
dat2 <- readRDS("data/dat2.rds")

Data 1

Score and proficiency (single time point)

Let’s start with data from a single time point and let’s model score as a function of proficiency.

dat1_5 <- dat1 %>%
  filter(time == 5)

dat1_5

# A tibble: 200 × 4
   score proficiency subj   time
   <dbl>       <dbl> <fct> <int>
 1  25.2      -0.983 s1        5
 2  18.3       0.235 s2        5
 3  27.6       0.342 s3        5
 4  28.9       0.900 s4        5
 5  20.5       2.25  s5        5
 6  23.2       1.12  s6        5
 7  32.1       1.75  s7        5
 8  25.8      -0.482 s8        5
 9  34.6       1.89  s9        5
10  23.0       0.538 s10       5
# ℹ 190 more rows
…
